{
   "forecast": [
      {
         "cod": "200",
         "message": 0.0204,
         "cnt": 96,
         "list": [
            {
               "dt": 1553709600,
               "main": {
                  "temp": 284.09,
                  "temp_min": 284.09,
                  "temp_max": 285.09,
                  "pressure": 1018.01,
                  "sea_level": 1018.01,
                  "grnd_level": 997.153,
                  "humidity": 100,
                  "temp_kf": 0.73
               },
               "weather": [
                  {
                     "id": 803,
                     "main": "Clouds",
                     "description": "broken clouds",
                     "icon": "04n"
                  }
               ],
               "clouds": {
                  "all": 60
               },
               "wind": {
                  "speed": 3.25,
                  "deg": 287.822,
                  "gust": 5.46
               },
               "sys": {
                  "pod": "n"
               },
               "dt_txt": "2021-05-11 18:00:00"
            },
            {
               "dt": 1553713200,
               "main": {
                  "temp": 285.09,
                  "temp_min": 285.09,
                  "temp_max": 286.09,
                  "pressure": 1018.335,
                  "sea_level": 1018.335,
                  "grnd_level": 997.403,
                  "humidity": 100,
                  "temp_kf": 0.49
               },
               "weather": [
                  {
                     "id": 800,
                     "main": "Clear",
                     "description": "clear sky",
                     "icon": "01n"
                  }
               ],
               "clouds": {
                  "all": 2
               },
               "wind": {
                  "speed": 3.4,
                  "deg": 294.075,
                  "gust": 5.46
               },
               "sys": {
                  "pod": "n"
               },
               "dt_txt": "2021-05-12 19:00:00"
            },
            {
               "dt": 1553716800,
               "main": {
                  "temp": 287.09,
                  "temp_min": 287.09,
                  "temp_max": 288.09,
                  "pressure": 1018.794,
                  "sea_level": 1018.794,
                  "grnd_level": 997.864,
                  "humidity": 100,
                  "temp_kf": 0.24
               },
               "weather": [
                  {
                     "id": 800,
                     "main": "Clear",
                     "description": "clear sky",
                     "icon": "03n"
                  }
               ],
               "clouds": {
                  "all": 1
               },
               "wind": {
                  "speed": 3.47,
                  "deg": 300.189,
                  "gust": 5.46
               },
               "sys": {
                  "pod": "n"
               },
               "dt_txt": "2021-05-13 20:00:00"
            }
         ],
         "city": {
            "id": 524901,
            "name": "Bogotá",
            "coord": {
               "lat": 4.68333333,
               "lon": -74.06666667
            },
            "country": "CO"
         }
      }
   ]
}